opt,nord-vim,(v0.15.0),Look,Nice theme
opt,translate.vim,(v0.0.3-3-g388192b),Writing,not using currently
opt,unicode.vim,(v20-133-g76e95c6),Writing/Code,Don't often use but when I do its very practical
opt,vim-airline-themes,(remotes/origin/HEAD),Look,Theme collection
opt,vim-asciidoc-folding,(heads/master),Writing,Folding support for asciidoc
opt,vim-asciidoc,(heads/master),Writing,Old plugin but needed for folding support
opt,vim-colors-solarized,(heads/master),Look,Why do I have this?
opt,vim-epub,(heads/master),Writing,Requires python2 -- pretty well useless
opt,vim-gitgutter,(remotes/origin/HEAD),,
opt,vim-pencil,(v1.5-17-g0945852),,
opt,vim-rooter,(heads/master),,
opt,vim-snippets,(heads/master),,
opt,vim-templates,(1.1-1-gd5fffe2),,
start,Asif,(heads/master),,
start,calendar.vim,(remotes/origin/HEAD),,
start,csv.vim,(remotes/origin/HEAD),,
start,goyo.vim,(1.6.0-36-g3e12919),,
start,iceberg.vim,(1.0-91-ga356b3e),,
start,limelight.vim,(heads/master),,
start,NrrwRgn,(0.33-119-g82a0fc6),,
start,ranger.vim,(3.0-24-g91e82de),,
start,syntastic,(3.10.0-10-g63b74a74),,
start,tagbar,(v2.7-129-gd7063c7),,
start,taglist.vim,(4.5),,
start,tmuxline.vim,(v1.0-20-g7001ab3),,
start,ultisnips,(3.2-27-ge83c820),,
start,vim-airline,(v0.11-210-gb6d6485),,
start,vim-asciidoctor,(remotes/origin/HEAD),,
start,vim-colors-pencil,(v1.0-8-g1779fa5),,
start,vim-fugitive,(v3.2-98-g1da7c13),,
start,vim-go,(v1.23-106-g7b439888),,
start,vim-kickstart,(20100210-17-gda48493),,
start,vim-ledger,(v1.2.0-52-gd5f2af4),,
start,vim-matchup,(v0.5.0-8-g13dab02),,
start,vim-mutton,(heads/master),,
start,vim-orgmode,(v0.6.0-33-gad5f154),,
start,vimple,(heads/master),,
start,VimRegStyle,(heads/master),,
start,vim-repeat,(v1.2-8-gc947ad2),,
start,vim-sensible,(v1.2-12-g2d9f34c),,
start,vim-snippets,(1.0.0-1372-gbf94550),,
start,vim-speeddating,(v20151024-5-gfe98cfa),,
start,vim-surround,(v2.1-18-gf51a26d),,
start,vim-SyntaxRange,(1.03-6-g63c382e),,
start,vimtex,(remotes/origin/HEAD),,
start,vim-textobj-quote,(v1.0-7-g86bbc1a),,
start,vim-textobj-user,(0.7.6-3-g41a675d),,
start,vim-tmux-navigator,(v1.0-38-g44ba6fb),,
